Preprocess bloodmeal profiles — prep_bloodmeal_profiles • bistro
…
check_inputs
A boolean indicating whether or not to check the
inputs to the function. Default: TRUE

    Value

    Dataframe with preprocessed bloodmeal profiles

    Examples

prep_bloodmeal_profiles(bloodmeal_profiles, peak_thresh = 200)
#> Removing 6 peaks under the threshold of 200 RFU.
#> For 1/4 bloodmeal ids, all peaks are below the threshold
#> # A tibble: 60 × 4
#>    SampleName Marker   Allele Height
#>    <chr>      <chr>    <chr>   <dbl>
#>  1 evid1      D10S1248 13       1856
#>  2 evid1      D10S1248 15       1045
#>  3 evid1      D12S391  18        297
#>  4 evid1      D12S391  18.3     1446
#>  5 evid1      D12S391  19        751
#>  6 evid1      D12S391  22       1370
#>  7 evid1      D16S539  10        312
#>  8 evid1      D16S539  11        743
#>  9 evid1      D16S539  12        619
#> 10 evid1      D16S539  9         217
#> # ℹ 50 more rows
…
